<?xml version="1.0" encoding="iso-8859-1"?>
<!-- Generator: Adobe Illustrator 19.0.0, SVG Export Plug-In . SVG Version: 6.00 Build 0)  -->
<svg xmlns="http://www.w3.org/2000/svg" xmlns:xlink="http://www.w3.org/1999/xlink" version="1.1" id="Layer_1" x="0px" y="0px" viewBox="0 0 510.827 510.827" style="enable-background:new 0 0 510.827 510.827;" xml:space="preserve" width="512px" height="512px">
<g transform="translate(1 1)">
	<g>
		<g>
			<path d="M492.493,271.373L507,228.707c7.68-18.773-0.853-40.107-18.773-47.787L297.08,97.293     c-27.307-11.093-58.027-11.093-85.333,0L20.6,180.92C2.68,188.6-5.853,209.933,1.827,227.853l14.507,42.667     c0.853,3.413,4.267,5.973,7.68,5.973v44.043C13.91,323.927,6.947,333.269,6.947,344.76v11.947     c0,16.213,11.093,30.72,27.307,34.133c73.387,19.627,145.92,29.013,220.16,29.013c70.827,0,136.533-8.533,220.16-29.013     c16.213-4.267,27.307-17.92,27.307-34.987v-9.387c0-12.167-6.963-22.185-17.067-25.827v-44.146     C488.227,276.493,491.64,273.933,492.493,271.373z M17.187,221.88c-4.267-10.24,0.853-21.333,10.24-25.6l191.147-82.773     c23.04-9.387,48.64-9.387,71.68,0l192,82.773c9.387,4.267,13.653,15.36,9.387,25.6l-12.8,37.547h-2.56H32.547h-2.56     L17.187,221.88z M484.813,355.853c0,9.387-5.973,17.067-14.507,18.773c-81.92,19.627-145.92,28.16-215.893,28.16     c-73.387,0-143.36-8.533-215.893-27.307c-8.533-2.56-14.507-10.24-14.507-18.773V344.76c0-5.12,3.413-8.533,8.533-8.533H476.28     c5.12,0,8.533,4.267,8.533,10.24V355.853z M467.747,319.16H41.08v-42.667h426.667V319.16z" fill="#FFFFFF"/>
			<path d="M225.4,180.067c-9.387,17.92-4.267,39.253,11.947,51.2l11.947,9.387c1.707,0.853,3.413,1.707,5.12,1.707     s3.413-0.853,5.12-1.707l13.653-11.093c15.36-11.093,20.48-32.427,11.947-49.493l-2.56-5.12     c4.267-5.12,8.533-13.653,5.973-24.747c-2.56-12.8-13.653-23.893-26.453-26.453c-10.24-2.56-21.333,0-29.013,6.827     c-8.533,6.827-12.8,16.213-12.8,26.453c0,7.68,3.413,13.653,7.68,18.773L225.4,180.067z M243.32,168.12     c-4.267-4.267-5.973-7.68-5.973-11.093c0-5.12,2.56-10.24,5.973-13.653c3.413-1.707,6.827-3.413,11.093-3.413     c0.853,0,2.56,0,4.267,0c5.973,1.707,11.093,6.827,12.8,13.653c0.853,5.973-0.853,9.387-5.973,14.507     c-2.56,2.56-3.413,6.827-1.707,10.24l5.12,11.093c5.12,9.387,1.707,21.333-6.827,28.16l-7.68,5.973l-7.68-5.973     c-9.387-6.827-11.947-19.627-6.827-29.867l5.12-9.387C246.733,174.947,245.88,170.68,243.32,168.12z" fill="#FFFFFF"/>
		</g>
	</g>
</g>
<g>
</g>
<g>
</g>
<g>
</g>
<g>
</g>
<g>
</g>
<g>
</g>
<g>
</g>
<g>
</g>
<g>
</g>
<g>
</g>
<g>
</g>
<g>
</g>
<g>
</g>
<g>
</g>
<g>
</g>
</svg>
